…
## What is mean total number of steps taken per day?

First, let's create a variable, `total_steps`,  holding the total number of steps taken on each day.  We also rename the column header on the second column.


```r
total_steps <- summarize(activity_by_date, sum(steps, na.rm = TRUE))
names(total_steps)[2] <- "sum"

total_steps
```

```
## # A tibble: 61 x 2
##          date   sum
##        <date> <int>
## 1  2012-10-01     0
## 2  2012-10-02   126
## 3  2012-10-03 11352
## 4  2012-10-04 12116
## 5  2012-10-05 13294
## 6  2012-10-06 15420
## 7  2012-10-07 11015
## 8  2012-10-08     0
## 9  2012-10-09 12811
## 10 2012-10-10  9900
## # ... with 51 more rows
```
…
